INDEX VERSION 1.130+C:\fsd56\advance java\servlets\workspace1\.metadata\.plugins\org.eclipse.jdt.core
3649741154.index
2406211736.index
3289081625.index
434501075.index
845682286.index
26807468.index
1234448108.index
322370397.index
1060660523.index
4201884511.index
1827438678.index
1570718049.index
2586948262.index
2170138973.index
2613177529.index
3209555907.index
866956586.index
2440079910.index
1176753622.index
672940151.index
1526959488.index
2654188042.index
55864188.index
761981977.index
1599819081.index
2146291053.index
1902383389.index
193044649.index
1904590069.index
2763918048.index
3774338718.index
2302953937.index
4070349408.index
1948149439.index
4182732156.index
2907382701.index
3247964413.index
3147985533.index
568617858.index
343837080.index
2666797127.index
2697802813.index
346636374.index
3966054380.index
2649554540.index
1105236586.index
859656055.index
162734463.index
